Introduction to R for Auditors
…
```r
data %>% 
  pivot_longer(cols=c(-...1), 
               names_to = "Year", 
               values_to = "Values")
```

```
## # A tibble: 56 x 3
##    ...1               Year  Values
##    <chr>              <chr>  <dbl>
##  1 Human Resources    2015   14791
##  2 Human Resources    2016   10835
##  3 Human Resources    2017   14746
##  4 Human Resources    2018    5650
##  5 Human Resources    2019    6584
##  6 Human Resources    2020   18874
##  7 Human Resources    2021    1120
##  8 Human Resources    2022   10685
##  9 Financial Services 2015    5919
## 10 Financial Services 2016   14645
## # ... with 46 more rows
```
---
### Dates

If a date column isn't automatically recognized, a character or numeric column will need to be converted to a date format.

```r
library(lubridate)

(sample_sick_data <- read_csv("sample_sick_data.csv"))
```

```
## # A tibble: 94,822 x 3
##    `Event Date` `Hours Absent` `Function Category`              
##    <date>                <dbl> <chr>                            
##  1 2021-11-23             8    SI - STD Pay @ 100%              
##  2 2021-11-24             8    SIE - STD Pay @ 100% Incident End
##  3 2021-02-26             6.75 SIE - STD Pay @ 100% Incident End
##  4 2021-06-24             6.75 SIE - STD Pay @ 100% Incident End
##  5 2021-12-15             6.75 SI - STD Pay @ 100%              
##  6 2021-12-16             6.75 SI - STD Pay @ 100%              
##  7 2021-12-17             6.75 SIE - STD Pay @ 100% Incident End
##  8 2021-08-27             7.5  SIE - STD Pay @ 100% Incident End
##  9 2021-07-20            10    SIE - STD Pay @ 100% Incident End
## 10 2021-01-15            10    SI - STD Pay @ 100%              
## # ... with 94,812 more rows
```
---
**Replace the full event date with just the year **

```r
sample_sick_data %>% 
  mutate(`Event Date`= year(`Event Date`))
```

```
## # A tibble: 94,822 x 3
##    `Event Date` `Hours Absent` `Function Category`              
##           <dbl>          <dbl> <chr>                            
##  1         2021           8    SI - STD Pay @ 100%              
##  2         2021           8    SIE - STD Pay @ 100% Incident End
##  3         2021           6.75 SIE - STD Pay @ 100% Incident End
##  4         2021           6.75 SIE - STD Pay @ 100% Incident End
##  5         2021           6.75 SI - STD Pay @ 100%              
##  6         2021           6.75 SI - STD Pay @ 100%              
##  7         2021           6.75 SIE - STD Pay @ 100% Incident End
##  8         2021           7.5  SIE - STD Pay @ 100% Incident End
##  9         2021          10    SIE - STD Pay @ 100% Incident End
## 10         2021          10    SI - STD Pay @ 100%              
## # ... with 94,812 more rows
```

---
### Strings

Filter for values that contain a specific string

```r
sample_sick_data %>% 
  filter(str_detect(`Function Category`, "SIE"))
```

```
## # A tibble: 11,041 x 3
##    `Event Date` `Hours Absent` `Function Category`              
##    <date>                <dbl> <chr>                            
##  1 2021-11-24             8    SIE - STD Pay @ 100% Incident End
##  2 2021-02-26             6.75 SIE - STD Pay @ 100% Incident End
##  3 2021-06-24             6.75 SIE - STD Pay @ 100% Incident End
##  4 2021-12-17             6.75 SIE - STD Pay @ 100% Incident End
##  5 2021-08-27             7.5  SIE - STD Pay @ 100% Incident End
##  6 2021-07-20            10    SIE - STD Pay @ 100% Incident End
##  7 2021-01-18            14    SIE - STD Pay @ 100% Incident End
##  8 2021-07-05            10    SIE - STD Pay @ 100% Incident End
##  9 2021-11-28            14    SIE - STD Pay @ 100% Incident End
## 10 2021-02-12             8    SIE - STD Pay @ 100% Incident End
## # ... with 11,031 more rows
```
…
